<?xml version="1.0" encoding="iso-8859-1"?>
<!-- Generator: Adobe Illustrator 19.0.0, SVG Export Plug-In . SVG Version: 6.00 Build 0)  -->
<svg version="1.1" id="Capa_1" xmlns="http://www.w3.org/2000/svg" xmlns:xlink="http://www.w3.org/1999/xlink" x="0px" y="0px"
	 viewBox="0 0 512 512" style="enable-background:new 0 0 512 512;" xml:space="preserve">
<circle style="fill:#E02424;" cx="256" cy="256" r="256"/>
<path style="fill:#990011;" d="M511.948,260.128L328.288,76.469c-17.789-19.831-43.61-32.311-72.348-32.311
	c-53.664,0-97.167,43.503-97.167,97.167c0,26.924,10.959,51.281,28.652,68.876l31.238,31.212v187.073l37.277,39.673l40.63,40.63
	C417.353,489.553,509.958,385.851,511.948,260.128z"/>
<polygon style="fill:#FEC000;" points="293.277,321.234 264.833,341.153 293.277,361.072 293.277,376.2 271.326,393.424 
	293.277,410.65 293.277,428.327 256,468 218.723,428.327 218.723,221.406 293.277,221.406 "/>
<polygon style="fill:#FF9A00;" points="293.277,321.234 264.833,341.153 293.277,361.072 293.277,376.2 271.326,393.424 
	293.277,410.65 293.277,428.327 256,468 256,221.406 293.277,221.406 "/>
<path style="fill:#FFE670;" d="M256,44c-53.664,0-97.167,43.503-97.167,97.167s43.503,97.167,97.167,97.167
	s97.167-43.503,97.167-97.167S309.664,44,256,44z M256,124.467c-16.346,0-29.597-13.251-29.597-29.597S239.654,65.273,256,65.273
	s29.597,13.251,29.597,29.597S272.346,124.467,256,124.467z"/>
<path style="fill:#FFDB2D;" d="M256,44v21.277c16.342,0,29.603,13.25,29.603,29.592c0,16.353-13.261,29.603-29.603,29.603v113.862
	c53.662,0,97.167-43.504,97.167-97.167S309.662,44,256,44z"/>
<path style="fill:#FEC000;" d="M255.997,58.273c-20.18,0-36.597,16.417-36.597,36.597s16.417,36.597,36.597,36.597
	s36.597-16.418,36.597-36.597S276.177,58.273,255.997,58.273z M255.997,117.467c-12.46,0-22.597-10.137-22.597-22.597
	s10.137-22.597,22.597-22.597s22.597,10.137,22.597,22.597S268.457,117.467,255.997,117.467z"/>
<path style="fill:#FF9A00;" d="M256,58.27v14c12.46,0,22.59,10.14,22.59,22.6s-10.13,22.6-22.59,22.6v14
	c20.18,0,36.59-16.42,36.59-36.6S276.18,58.27,256,58.27z"/>
<g>
</g>
<g>
</g>
<g>
</g>
<g>
</g>
<g>
</g>
<g>
</g>
<g>
</g>
<g>
</g>
<g>
</g>
<g>
</g>
<g>
</g>
<g>
</g>
<g>
</g>
<g>
</g>
<g>
</g>
</svg>
