<?xml version="1.0" encoding="iso-8859-1"?>
<!-- Generator: Adobe Illustrator 19.0.0, SVG Export Plug-In . SVG Version: 6.00 Build 0)  -->
<svg version="1.1" id="Layer_1" xmlns="http://www.w3.org/2000/svg" xmlns:xlink="http://www.w3.org/1999/xlink" x="0px" y="0px"
	 viewBox="0 0 511.999 511.999" style="enable-background:new 0 0 511.999 511.999;" xml:space="preserve">
<path style="fill:#FFFFFF;" d="M193.547,69.205L103.525,1.688c-2.558-1.917-5.98-2.228-8.838-0.797
	c-2.859,1.429-4.665,4.351-4.665,7.548v180.044c0,4.662,3.779,8.44,8.44,8.44h90.022c4.661,0,8.44-3.778,8.44-8.44V75.956
	C196.923,73.3,195.673,70.798,193.547,69.205z"/>
<path style="fill:#FFFFFF;" d="M193.547,69.205l-38.822-29.116v156.835h33.758c4.661,0,8.44-3.778,8.44-8.44V75.956
	C196.923,73.3,195.673,70.798,193.547,69.205z"/>
<path style="fill:#FFFFFF;" d="M199.736,180.044H87.209c-4.661,0-8.44,3.778-8.44,8.44v135.033c0,4.662,3.779,8.44,8.44,8.44
	h112.527c4.661,0,8.44-3.778,8.44-8.44V188.484C208.176,183.822,204.397,180.044,199.736,180.044z"/>
<path style="fill:#FFFFFF;" d="M199.736,180.044h-33.758v151.912h33.758c4.661,0,8.44-3.778,8.44-8.44V188.484
	C208.176,183.822,204.397,180.044,199.736,180.044z"/>
<path style="fill:#FFFFFF;" d="M210.989,315.077H75.956c-4.661,0-8.44,3.778-8.44,8.44V503.56c0,4.662,3.779,8.44,8.44,8.44h135.033
	c4.661,0,8.44-3.778,8.44-8.44V323.516C219.428,318.854,215.65,315.077,210.989,315.077z"/>
<path style="fill:#FFFFFF;" d="M210.989,315.077h-33.758v196.923h33.758c4.661,0,8.44-3.778,8.44-8.44V323.516
	C219.428,318.854,215.65,315.077,210.989,315.077z"/>
<path style="fill:#FFFFFF;" d="M368.527,202.549c-41.883,0-75.956,34.073-75.956,75.956V503.56c0,4.662,3.779,8.44,8.44,8.44
	h135.033c4.661,0,8.44-3.778,8.44-8.44V278.505C444.483,236.623,410.41,202.549,368.527,202.549z"/>
<path style="fill:#FFFFFF;" d="M368.527,202.549c-12.53,0-24.35,3.069-34.779,8.464c0.527-0.012,1.053-0.025,1.583-0.025l0,0
	c37.288,0,67.516,30.228,67.516,67.516v233.494h33.196c4.661,0,8.44-3.778,8.44-8.44V278.505
	C444.483,236.623,410.41,202.549,368.527,202.549z"/>
<g>
</g>
<g>
</g>
<g>
</g>
<g>
</g>
<g>
</g>
<g>
</g>
<g>
</g>
<g>
</g>
<g>
</g>
<g>
</g>
<g>
</g>
<g>
</g>
<g>
</g>
<g>
</g>
<g>
</g>
</svg>
